{
  "files": {
    "main.css": "/static/css/main.c1c790fb.css",
    "main.js": "/static/js/main.055a696d.js",
    "index.html": "/index.html",
    "main.c1c790fb.css.map": "/static/css/main.c1c790fb.css.map",
    "main.055a696d.js.map": "/static/js/main.055a696d.js.map"
  },
  "entrypoints": [
    "static/css/main.c1c790fb.css",
    "static/js/main.055a696d.js"
  ]
}